$ResFormat /* GetDP 3.2.0, ascii */
1.1 0
$EndResFormat
$Solution  /* DofData #0 */
0 0 0 0
4.820961621906041e-05 0
9.387762421425908e-05 0
0.0001394006840001318 0
0.0001857758467648388 0
0.0002346279523467106 0
0.0002859906966841902 0
0.0003405202814982961 0
0.0004000733454146681 0
0.0004633041486103951 0
0.000530570477386601 0
0.0006003399277308976 0
0.0006726278081473347 0
0.0007445865230137039 0
0.0008145801836801734 0
0.0008813398540370207 0
0.0009434146129409786 0
0.0007995730910094548 0
0.0006223125553225909 0
0.0004655591189812279 0
0.0003269352026515702 0
0.0002043380911070278 0
9.590760801860271e-05 0
0.0007995424892317529 0
0.0006896569166830809 0
0.0006010978137660362 0
0.0005254984819468842 0
0.00045872034414165 0
0.0003964862867572095 0
0.0003403444251432493 0
0.0002892295586498285 0
0.0002420108711926591 0
0.0001989119337240072 0
0.0001610170082169216 0
0.0001279385714425577 0
9.945715319918165e-05 0
7.57968397142962e-05 0
5.62909191315728e-05 0
4.109462085309763e-05 0
2.931432934228248e-05 0
2.069454540460732e-05 0
1.4346264916391e-05 0
1.009099736601144e-05 0
7.127460901397842e-06 0
5.03647389841939e-06 0
3.637459949964201e-06 0
2.62603318078717e-06 0
1.913601654552841e-06 0
1.351931679949267e-06 0
9.302176008722602e-07 0
5.616365009884159e-07 0
2.811412411196423e-07 0
0.000381937906689501 0
0.0005017640644542783 0
0.0002895596037405468 0
0.000499827114576375 0
0.0004933504827362532 0
0.0005304883906143944 0
0.0006389387640117844 0
0.000163174878114742 0
7.305382320975415e-05 0
0.0006119148061643104 0
0.0006998411996204883 0
0.0007825584027021988 0
0.0002753214703764249 0
0.0004266763241770014 0
0.0007232437633134898 0
0.0007638798716099398 0
0.0003153148860922573 0
0.0002730832632643953 0
0.0007375190622741588 0
0.0005354041517734257 0
0.0005796384757493241 0
0.0002465996839832502 0
0.000375493743548902 0
4.759197296690721e-05 0
0.000824160641800015 0
0.0008483479200698741 0
0.0007403067626519224 0
0.000260955000892173 0
0.0005190143302369589 0
0.000231448724543684 0
0.0001564732171970303 0
0.000793746158653886 0
0.0007510706115544984 0
2.069193939065502e-05 0
0.0001836652358243827 0
0.0001606630527866086 0
0.0007711161959844904 0
0.0002189259055410901 0
0.000843100034165605 0
0.0003317229244078185 0
9.653282349711227e-05 0
0.0006807089623789632 0
0.0008347507354338918 0
8.485427998655742e-06 0
0.0003436479956187461 0
0.0003804062252663946 0
0.0007911111179329971 0
0.0007755883049201693 0
0.000496217286997371 0
0.0003093531658706353 0
0.0008717900092179891 0
0.000214642322632836 0
0.000501512887512872 0
0.0001746849024722489 0
0.0004467738969509289 0
0.0001700846815180734 0
0.0005392067973915805 0
0.0005723010587072103 0
0.00084606752183734 0
0.0005968229911092433 0
0.0002029006335970837 0
7.937178731570514e-05 0
5.985331633626138e-05 0
0.0001100067808003667 0
0.0008917123776870438 0
0.0009037463821917572 0
0.0001523296674012433 0
0.0004492230080453133 0
0.00035416876591861 0
0.0006443863097142725 0
4.115578840196674e-05 0
5.892987501513159e-06 0
0.0003877278865025284 0
1.920130316987212e-05 0
0.0002656264208482441 0
0.0002021041899733601 0
0.000442605620277472 0
0.0002027239798380686 0
0.0003607776482996356 0
0.000837571815251729 0
0.000917548115077148 0
3.487780952730111e-06 0
0.0001231842476287494 0
0.0003302394686927565 0
0.0005350404646092636 0
0.0007067490206515309 0
0.0005040209096117523 0
0.0003119406666846104 0
0.0001111051833254566 0
0.0008589656885189499 0
0.0009188446930203911 0
0.0004348890068948024 0
0.0007377228585869911 0
0.0009104710489124062 0
2.241872772652707e-06 0
0.0005921610708362152 0
0.0006925089356177486 0
0.0004080710457360395 0
0.0008913840987374564 0
0.0002577962641645196 0
0.0008448714485961339 0
0.0006242804321618406 0
0.0008636339246358965 0
0.0001092705777976324 0
3.451464634152818e-05 0
2.328787032774381e-05 0
0.0005236200955760053 0
0.0003184324692120307 0
0.0009178692358601898 0
0.0006508861133983902 0
0.0006709114886144526 0
0.0006390140330505712 0
0.0007687967671576618 0
0.0008002123790968793 0
0.0004838347798274199 0
0.0001409298456077443 0
0.0008653682160147401 0
0.0001574957291019509 0
0.0009307359869355322 0
0.0006115672353667315 0
9.210991322853619e-05 0
0.0009303227485213861 0
0.0006639505649454656 0
0.0006430378874617938 0
0.0002784643416001909 0
5.928944055367006e-05 0
0.0003747675894283056 0
0.0001852527589828905 0
0.0003429188227229832 0
0.0008947842181370681 0
0.0003781933210311832 0
0.0004636020337344477 0
3.023186295965029e-05 0
0.0003916061387760727 0
0.000831588325940608 0
1.529385334581623e-06 0
5.32843940207325e-06 0
7.104854999908997e-08 0
0.0001397874617447642 0
0.0006715238677881314 0
0.0002070251966638362 0
0.0008755823223283363 0
0.0007151984185762118 0
0.0001023444972916279 0
0.0004006388094774533 0
1.04185436189342e-05 0
0.0008309871044849148 0
0.000133659257769205 0
0.0008888752758411554 0
4.202577423723957e-05 0
0.0006752029714592957 0
0.0009324892351100171 0
0.0002879157851738531 0
0.000109258895813752 0
0.0001730702451801564 0
0.0002119818285603589 0
0.0007717009716440189 0
0.0007280114481510414 0
0.0009088783749645364 0
0.0005733978086377857 0
0.0003906108655830445 0
0.0006342019704042948 0
1.366773127480226e-06 0
2.138986650946288e-07 0
0.0005019238412374501 0
0.0004931392691257922 0
0.0001742017382276491 0
0.000141860151381189 0
0.0009273254921216886 0
0.0006370473892177384 0
7.43546048800937e-05 0
5.874173835304872e-05 0
1.463982663630043e-05 0
0.0006100541249639738 0
0.0008399170190279141 0
8.075386626462757e-07 0
0.0006126169913394515 0
0.0002411200360590883 0
0.0007617175433824929 0
0.0003720407096324589 0
9.676133391787674e-05 0
0.0008940419639419263 0
1.05431670963256e-05 0
0.0003586772537993516 0
0.0007028016421086089 0
0.0005048578004088561 0
3.825248894893628e-07 0
0.0009441933199610309 0
7.651343254515677e-05 0
5.080774351768457e-07 0
0.0004305758119738823 0
0.0009097343128355499 0
0.0004037518017359956 0
9.019182597395264e-05 0
0.0005581015256153783 0
0.0006429839036339655 0
0.0001435327582354184 0
0.0007234783588052195 0
0.0002836477402604119 0
0.0006428469781734401 0
0.0002153209481815756 0
0.0007752487057116187 0
2.719212771063779e-05 0
5.541076540681958e-05 0
0.0008185257845219835 0
0.0001447801268568992 0
0.0004211502670383921 0
0.0003726664087752976 0
2.821772402509891e-05 0
8.340116228917168e-05 0
0.0008453486934598534 0
0.0002482245741152739 0
7.917894718961927e-05 0
0.0008616019397407596 0
0.0003008094801614561 0
0.0007969603695077391 0
0.0001490144249373152 0
0.0001620762784894398 0
0.0004955053624907133 0
0.0005161993403158611 0
0.000235646557740542 0
0.0009065968635335448 0
0.0002852033960364518 0
0.0006694231756995692 0
0.0001499361072155208 0
0.0008868453726635597 0
0.0004190929152896447 0
5.210357991166106e-05 0
0.0007206636089694257 0
0.0002066990768577694 0
2.282354738712536e-05 0
0.0009007423216280588 0
0.0005386838146348258 0
1.513310626561948e-05 0
3.813964148937593e-05 0
1.299480148560868e-05 0
7.724885241555508e-05 0
5.797348108840116e-05 0
9.56328981334565e-05 0
0.0006396728611613816 0
0.0005047392912426195 0
0.0009087282088528749 0
0.0001381053271984652 0
1.139694137216752e-05 0
9.620999247396014e-05 0
7.240184891741167e-05 0
0.0003740307163442412 0
0.0002804171511209078 0
5.272363683099995e-05 0
0.0009272493713172559 0
0.0002184514603710573 0
0.0002095375027511971 0
0.0001680853753688404 0
1.281829082284305e-05 0
0.0006791547263370911 0
0.0003890320097332232 0
0.0007537976253391019 0
0.000912287631156461 0
8.934295289431777e-05 0
9.499738816425864e-05 0
0.0004630625387567906 0
3.518187763963051e-05 0
0.0005964755674806381 0
0.00031880735030241 0
0.0003125872341675739 0
0.0003168971119172362 0
0.0007994861970630733 0
0.000362875475296268 0
0.0001146622411893372 0
0.0005789342567435033 0
0.0007741421054865058 0
2.294770054688205e-05 0
0.0001467237346565466 0
0.0009261560166487899 0
3.828358257855209e-05 0
0.0009357338085713325 0
5.045500345457995e-05 0
2.609749804752223e-05 0
0.0006209071838839061 0
0.0005226149575187661 0
0.000864551688380812 0
0.000472354831085495 0
3.913281223178393e-05 0
4.804792139928307e-05 0
0.0001291469899147731 0
0.0007697671109553465 0
0.0002252709763409639 0
0.0007236570123912159 0
0.000906866108234426 0
1.327720327274452e-05 0
0.0004529750911683179 0
0.0009358588458168043 0
0.0008624134049527561 0
0.0001558744558811249 0
9.676378808253686e-05 0
0.000227107486641449 0
0.000537035023759131 0
0.0007793329681284135 0
0.0001132836237699012 0
0.0008223361096447248 0
0.0003150987823801087 0
0.0002074667808613122 0
0.0001161614594433938 0
0.0006209683457076961 0
0.0002275942110123217 0
0.00024381345233963 0
1.066232084048567e-05 0
0.0009334350797110751 0
0.0001211773181835122 0
2.20288159331919e-05 0
3.294325736392511e-05 0
6.88792631941893e-05 0
0.0004535625023549171 0
0.0006739372098400421 0
0.000114278346799734 0
5.493754963904777e-06 0
0.0008269068572196987 0
0.0009522561474561873 0
0.0008364630724929052 0
0.000182092849490035 0
0.000955529447892139 0
0.0002625246329739701 0
6.701771628498029e-05 0
0.0004857671155679744 0
0.0004210617707830473 0
7.066855942774527e-05 0
0.0001639066429614832 0
0.0001608947319598803 0
0.0002251866354945771 0
7.802087700549657e-06 0
0.0007030788829236594 0
0.0001868820856785608 0
0.0009495755403994435 0
0.0004368949559936208 0
0.0009438708399355869 0
5.50439840850435e-05 0
0.0006905389641700516 0
6.537939088592494e-05 0
0.0005692256353748907 0
1.916213216648146e-05 0
0.0006416090406906812 0
0.0003343518823307922 0
0.0001157241500440024 0
0.0005728698657490994 0
0.0008222403573853076 0
2.376951151605478e-05 0
8.033539591914596e-05 0
0.0006022603084526996 0
0.0009538385414879816 0
0.0007888586610059424 0
0.0003080192516855338 0
4.418355685717172e-05 0
0.0003558274963727309 0
8.223790859779734e-06 0
0.0001639417096301219 0
0.0003577550777468226 0
3.569795795514229e-06 0
1.949791094854255e-05 0
0.0001035372439777747 0
4.326545003562786e-05 0
1.364351948399399e-05 0
0.0005456454843207915 0
0.000322690393324511 0
4.022052389381326e-05 0
7.678215871128347e-05 0
0.0009331630976524168 0
0.000290806088755949 0
0.0006265696977200288 0
0.0005758281547614334 0
0.0006783474085817155 0
2.358695290273314e-05 0
1.879949406018513e-05 0
0.0002649004049162937 0
3.871249464541065e-05 0
6.668907806248234e-05 0
0.0001180770840336416 0
0.0007351701475198889 0
9.859966688426064e-06 0
0.0004241250588506033 0
0.0007794937604715384 0
0.000275762646980148 0
0.0009503777193632177 0
0.0009639700385367499 0
0.0008855721302617976 0
8.048343811159164e-05 0
0.0005212391868462296 0
5.466381549242044e-05 0
0.0009614818137690317 0
1.997351782511081e-05 0
0.0001057170990435514 0
0.0001403661016054585 0
0.0003815067039697742 0
5.992555041782845e-06 0
4.834275893931668e-05 0
0.0004193257604561639 0
0.0001456932456550261 0
6.727590220212584e-06 0
0.000432021452424301 0
0.0009657419364231085 0
0.0004738790673553066 0
0.0009557848306598757 0
0.0009592878006737244 0
0.0001729008694202478 0
0.0002688942927805219 0
0.0002499743819121344 0
0.0007653225890732652 0
0.0001855813191314759 0
0.000247299081444542 0
0.0001853379074692357 0
2.635174714444908e-05 0
0.0004733702015107326 0
0.0006292028458497695 0
7.353428320719948e-05 0
0.0005193350648829147 0
0.0007193896872753962 0
3.83854943679886e-05 0
0.0002178118170616058 0
0.0002523348201483116 0
4.821219085428423e-05 0
0.0006375093976746381 0
0.0004099230240415718 0
0.0008724425226215211 0
0.0005851847168295573 0
0.0003562447292609651 0
6.580337351464428e-05 0
0.0001024765620142612 0
0.0008439121114256414 0
0.00086270090716643 0
0.0003570333230850369 0
1.118527107892943e-05 0
0.000144328682169986 0
0.0003448096847633112 0
3.837838172210782e-05 0
0.0008819392795073171 0
0.0002069583505390582 0
0.0006155344822784056 0
2.478354236694651e-05 0
0.000108535789238216 0
0.0008904405867892805 0
0.0009674212841327098 0
0.0009667310826650641 0
4.702566061240175e-06 0
5.406891988273728e-05 0
0.0001163446958742172 0
0.0006668331079929631 0
0.0007114145336839121 0
0.0003523759706641062 0
0.0007880304228534918 0
0.000371649718453418 0
0.0005902261505983715 0
0.0007317751353337207 0
3.568329451820063e-05 0
5.787861623988213e-06 0
5.060280603162475e-05 0
0.0003699179129828135 0
0.0003351781333678071 0
1.243492579215591e-05 0
0.0002081233358942666 0
2.751960703455997e-05 0
9.278930111603351e-05 0
0.0009662112118440498 0
4.012503087148662e-05 0
0.0008925361227621656 0
0.0009726460671235219 0
0.00085633088049672 0
0.0009233413376951696 0
9.948429460924768e-05 0
8.994789096302693e-05 0
0.0009741479549721067 0
0.000930675390942107 0
0.0008803623299646805 0
0.0003671347614797021 0
9.69397138321996e-06 0
0.0002505678976755905 0
0.0001175766059157364 0
0.0007263155656978867 0
0.0008173380735631386 0
0.000511529296485821 0
0.0002918315731994861 0
0.0005231753077554489 0
0.0008723825857133704 0
0.0001228370278952997 0
0.0001377914927782272 0
6.089877847385299e-05 0
0.000214517390574743 0
0.0004299279651506789 0
3.61167617025348e-05 0
0.0008187732182436789 0
0.000107176574939578 0
0.0004621257330017872 0
6.889109914061275e-06 0
0.0001709129831606611 0
0.0005718812728095663 0
0.0007474825827561509 0
0.0004011870606155207 0
0.0004918226032505228 0
0.0007766831416241768 0
7.613886953756856e-05 0
2.239905941844038e-05 0
0.0005827330152931327 0
0.0006775908336012154 0
0.0001302211498715119 0
0.0009678943480986866 0
0.0004438775316545664 0
4.667409712596092e-05 0
0.0004652417403786813 0
0.0001989994367709016 0
0.0009294922862922181 0
0.0002589172031767371 0
1.555691514623587e-05 0
0.000175335503501377 0
0.0009108665132487909 0
0.0001687598075259561 0
0.0002872186065762781 0
0.0008615387282747807 0
0.0007738186330988423 0
2.914082225440812e-06 0
1.928348474840809e-05 0
0.0001746379438315164 0
0.0009580986540294028 0
1.708822308165736e-05 0
0.0007733536974727406 0
7.417685278508342e-05 0
0.0001915072252630486 0
0.0001181870228268872 0
0.0003157131513319582 0
4.427672785860275e-05 0
6.740418197650975e-06 0
0.0001506658836950169 0
1.966210619135223e-05 0
1.237728800184847e-05 0
3.623403175090816e-06 0
0.0008350953792736778 0
0.0005286962955501761 0
0.000504346620082318 0
7.053068309845759e-05 0
0.0008696354147673785 0
0.0001034666073833126 0
2.88259836948943e-05 0
0.0003114705787968422 0
0.000410660395725785 0
0.0006386721860414328 0
1.482812435076252e-06 0
0.000581724661269625 0
0.0004339927484637233 0
0.000713336644856553 0
6.951922315648404e-05 0
0.0004472794211201474 0
0.0004828345182916266 0
5.565981726623234e-05 0
0.0005925909823868892 0
0.0007590750719178487 0
0.0008175176293931422 0
1.868844706258916e-05 0
0.0002465433905547443 0
0.0007043564864123614 0
0.0001766737759935573 0
0.0008980475034363686 0
0.0001415436624601524 0
3.416307040639221e-05 0
0.0009647574751758797 0
0.0009322140102950249 0
0.0004707240862922883 0
0.0009049976021645626 0
9.727405521076801e-05 0
0.0002717586926012873 0
9.584799483536377e-05 0
0.0008638532996870452 0
0.0003252610310215836 0
0.000859989259214373 0
0.0003203839229583066 0
0.0001233065139552975 0
0.0008147454010546681 0
0.0005704773547029937 0
0.0008205425807591895 0
3.101595508415913e-05 0
0.0006616660447971465 0
0.0007373321337029 0
0.0003362508355035451 0
5.170437935393671e-05 0
0.0003970407375209073 0
7.636178011869097e-05 0
2.201379503077435e-05 0
6.337039555661704e-05 0
0.0007912277171485488 0
0.0003476484132253472 0
0.000115358441972761 0
0.0006571809430471005 0
9.866568220096717e-07 0
2.530798054645271e-06 0
0.0002351363234948816 0
0.000768853524944817 0
0.0001392525978656547 0
0.0001802455937555734 0
0.0002180098125016028 0
7.622534342813062e-05 0
0.000175424831965177 0
6.132446913982638e-05 0
0.000530216377209199 0
2.68100444487239e-05 0
0.0003701063104327689 0
1.420500643840827e-05 0
0.0003880881918746913 0
0.0005513928674806503 0
$EndSolution
